{
  "error": false,
  "isNewApp":false,
  "isForce":"yes",
  "app_pkg": "com.chatkar.randomchat.livevideocall.randomvideocall.videocallappwithgirl.livetalk.videocall",
   "fbBannr": "YOUR_PLACEMENT_ID",
  "fbInter": "YOUR_PLACEMENT_ID",
  "fbNative": "YOUR_PLACEMENT_ID",
  "fbNativeBnnr": "YOUR_PLACEMENT_ID",
  "AdmobBannr": "ca-app-pub-3940256099942544/6300978111",
  "AdmobInter": "ca-app-pub-3940256099942544/1033173712",
  "AdmobInterSplash":"",
  "AdmobNative": "ca-app-pub-3940256099942544/2247696110",
  "AdmobOpenAds": "ca-app-pub-3940256099942544/3419835294",
  "admob_pub_id": "pub-3940256099942544",
  "admob_app_id": "ca-app-pub-3940256099942544~3347511713",
  "adType": "admob",
  "adStatus": "admob",
  "isConsent":true,
  "adNativeCount":15,
  "Advertise_List": [
    {
     
	    "ad_id": 0,
	    "app_name": "Video Player All Format",
	    "app_packageName": "com.videoplayer.musicplayer.audioplayer.videoplayerallformat",
	    "app_logo": "https://play-lh.googleusercontent.com/5adeqWGt4RLISBe1zfHo65b4KWo2BVc1LTz5JFOGvheE7ohafUSChcQBZaUsrdMGeTU=w240-h480",
	    "app_banner": "https://play-lh.googleusercontent.com/qoj2RKinrIxuSKXmzef0De8kQ5_wWMy_7ZlD0eO-vAdgkTwIftAMqjqQ3US3SUKaEQ=w416-h235",
        "app_shortDecription": "HD video player helps you to play video which is available on your device",
		"app_rating": "4.4",
		"app_download": "1000",
		"app_AdFormat": "Banner",
		"app_buttonName": "Install"
	  
    }
  ],
  "adMobTime":5
}
